<svg xmlns="http://www.w3.org/2000/svg" viewBox="0 0 1920.002 112.322">
  <path id="Path_1" d="M22,15.3v95.6H92.742c.3-.454,2.7,3.091,3,2.637l9.708.227,10.484.566,2.729-.976,15.9,2.568,2.51-1.223,1.791,1,2.119,1,22.5-.817,11.3.773,2-1.773,7.5-1.227,1.2-.795,1.2-.227.8.114-.5.454c5.617,2.044,8.526,1.136,8.827,1.59l2.909-.795c.3,1.136,1.3,1.7,2.909,1.7,0-.795.6-1.249,1.906-1.249v-.454c0-.568-.5-.795-1.4-.795l-.5-.454v-.454l1-1.817h5.718v.568c2.207.454,3.41,1.022,3.41,1.7h1c0-1.136,1.3-1.7,3.812-1.7a2.738,2.738,0,0,0,2.909,1.7l.5,1.249h1l1.4-1.249c1.705,0,3.31,2.726,4.915,3.748h.5l1.806-1.249,1,.795-.5,1.249,2.407.795,1-1.249-.5-1.7h.5l1,.795-.5.454v.454l.5.454h1.4v-.454l-.5-2.044h1.4c0,.795,1.1,1.59,3.41,2.5l1.906-2.5h.5l.5.454h.5l.4-2.044h0l.6.568-.6.568,1.806.568.1-.227A3.59,3.59,0,0,0,248.5,115.7v1.249c-1.3.114-1.906.568-1.906,1.249l1,.795,1.4-.454,1.4,1.249.5-.454v.454l2.407-1.249.5.454h1l.3-.114v.341h.5l1-.795-.2-.227,1.4-.795-.5-1.7v-.8h.1c.1,0,.3.114.4.114h0l-.1.341.1.114a3.208,3.208,0,0,0,1.5,1.817,7.463,7.463,0,0,1,.2,1.476c1.6.568,2.407,1.476,2.407,2.953l-1,.795v1.249l2.909-1.7.5,1.249,1-2.158v-.795c1,0,1.906-1.022,2.909-2.953l-.5-.454v-2.839h1.4a7.94,7.94,0,0,1,3.812,1.7h.5a4.171,4.171,0,0,0,2.006-2.044l3.611.227,1.806-.227.3.227h.3l1.2-.341-.5,3.634h-.8v.454l.7.568-.1.909h1.4c.3-3.294,1-5.111,1.906-5.111h1.6l.5.114.3-.114,2.207-.114,1.4.227.3-.227h.3l4.213-1.817.3-.227.3.227,2.407-1.022,2.106-.568.6.568.9-.681.8.114h2.909l10.231.454,7.322-.454,2.909.454,2.407-.454.5.454h.5a4.772,4.772,0,0,0,3.611-1.249l.7.114,5.216-.795,1.1-1.249.3-.681H348.7l1.806.454.4-.454v.454l1.806.681,1.5.454,1.5-.454,1.806.454,2.207-.454h3.31l.4.454.1-.114v.114h.4l.4-.454,23.272-1.022,5.617-.454,25.679,2.5,1.806-1.931,4.715,1.931,3.912-1.931,57.075,2.953,2.207-.795,2.207.454h1.1l2.608-.454.4.454,1.806-.454,2.207.795,1.806-3.975.8.227c0,.795.5,1.249,1.5,1.249v.454l.4-.454h.7v.795l2.608-.454h.4l.7.795-.7.795,2.207.795.4-1.7c-.5,0-1-.795-1.3-2.271h1.3l3.31-.454,2.608.454h1.1c.1.114.1.114.1.227l-.7.795v.795h1.806l-.4,2.044,1.805,1.7h1.1c0-1.363.2-2.044.7-2.044h1.806v-1.249h.4l.4.454h.4l-.4,2.044.7.795h1.1l.4-.454,1.806.795,1.5-1.7,1.5-2.385,2.608.681,1.1,2.5v-.795h1.1c0,.568.6.795,1.806.795l.4.454v.795l1.5-.795,10.733.795,2.207-.454.3.454h.4l2.207-.795,5.216,1.249,1.5-.795,3.31,5.224.4-.454h.4l5.216-4.884.4-.454.4.454L575,117.854l2.608-.795.7.795,3.711-5.565c2.307.114,3.711.568,4.514,1.249h.4c.5,0,.7-.454.7-1.249l.3,1.249-.7,1.249c.4.341.8.568,1.2.909,0,.114,0,.114.1,0a6.566,6.566,0,0,0,3.611,1.59h1a2.63,2.63,0,0,1,1.906-2.5l1,2.158-.5,2.953v2.044h1.4l1-2.953-1-2.5a2.48,2.48,0,0,1,.6-1.7c1.1.114,2.508.227,4.012.341l.7-2.5-.4.454h-.7l-.4-.454h-.6l-.7.795h-.2v-1.136h-1l-.3.227h-.7l-.7-.795h.4l3.31.454.7-.795c.4.568,1.705.795,3.711.795l.4.454v.454l-2.207.454c.6,1.363,1.806,2.044,3.711,2.044.1-.114.2-.114.3-.227l-.8,2.953.5,3.748h.5l1.4-.795,1,2.044-1,.795c.4,1.363.9,2.044,1.4,2.044l2.407-.795v-.227c1.1,0,2.006-.909,2.909-2.5v-.795h-1.5q0,2.044-1.5,2.044v1.136c-1.6,0-2.307-.681-2.307-2.044a7.055,7.055,0,0,1,3.411-1.7v-.454l-1.906-2.5c1.2-2.5,2.608-3.748,4.313-3.748l1,.795c-1.6,1.817-2.407,3.18-2.407,4.2v.454l3.411,1.7c.3-1.7.8-2.5,1.4-2.5l1.4.795h1.906l2.909-1.7,3.411.454v.795c-.9.795-1.806,2.612-2.909,5.565,1.3,0,1.906.795,1.906,2.5h2.909l1-.795v-.568l-1.4-1.7c0-.454.8-.909,2.407-1.249l-.5-2.044v-.454c1.6-.227,2.407,1.476,2.407.909v-3.748l.5-.454v-.454l-.3-.341,5.417-1.931,1.3.341.4-.454v.454l1.805-.454,3.511.114a11.825,11.825,0,0,0,1,1.363l1.4-.454v1.249h1.3v.454l1,.795-.5,2.044v.795c0,.568.6.795,1.906.795v.795c-1.3,0-1.906.568-1.906,1.7l1.705,2.158,5.216-.681,3.31-1.022-.5-2.044.5-.454v-.454l-1-2.5c.6-1.249,1.3-1.931,1.906-2.044l.5,1.249-1,1.7.5,1.249h2.407c.6,0,1.1-1.136,1.4-3.294l.5-.454h.5l1.4.454v-1.7l.4-1.7.9.227.3-.114.3.227h-1v.454L674,118.877l1-2.044h-1v-1.249h.9v.681l1.806.454v-.681l1.6.454,1-1.7h.5l1,.795c1.805,0,2.708-.341,2.909-1.022h1.906l1.5.227,1-.227h1.2l5.617,3.748a2.738,2.738,0,0,1,2.909-1.7l.5-1.249h3.812c.2,1.136.6,1.7,1.4,1.7h1V115.81c3.812,0,5.918.681,5.918,2.044l2.909-2.044,1,1.7h.5v-.795l.5.454h.5l.5-.454.5.454,1-1.7h1c1,0,1.4.568,1.4,1.7h.5a2.945,2.945,0,0,1,.5-1.59c.6.114,1.3.227,2.006.341a15.421,15.421,0,0,1,5.918-1.249l2.407,2.271c1.6,0,2.407-.227,2.407-.795l.5.454h.5l3.411-.454,1.4,4.429,1-3.975h1.4l2.909.795c0,.568.8.795,2.407.795,0,.795,1.5-.909,2.207-.909h.5c0-1.249,31.4-1.7,60.386-1.931v.341l.3-.341h.8v.795l31.2-.454h.4l.7.795-.7.795,2.207.795.4-1.7c-.4,0-.8-.454-1.1-1.363h4.012v.454h.4l.4-.454h2.608l-.1.114v.795h1.806l-.4,2.044,1.805,1.7h1.1c0-1.363.2-2.044.7-2.044h1.806v-1.136h.4l.4.454h.4l-.4,2.044.7.795h1.1l.4-.454,1.806.795,1.5-1.7,1.5.795,2.608-.454,1.1.454v-.909h1.1c0,.568.6.795,1.806.795l.4.454v.454l1.5-.795,10.733.795,2.207-.454.4.454h.4l2.207-.795,5.216,1.249,1.3-.681h.6l2.909.681.4-.454h.4l5.216.454.4-.454.1.114c.3,1.136.6,1.59,1,1.59l1.806-.795v-.341a1.525,1.525,0,0,1-.7-.114h1l2.608-.795.7.795,3.711-3.294a8.877,8.877,0,0,1,3.812.795,19.278,19.278,0,0,0-.8,2.612c1,0,1.5.795,1.5,2.5h2.207l.7-.795v-.454l-1.1-1.7c0-.454.6-.909,1.806-1.249l-.2-1.136-.2-.114a6.824,6.824,0,0,1,.9-.909v.341l.5.454h1.4v-.454l-.3-1.363a2.794,2.794,0,0,1,1.3-.341c.3.681,1.4,1.363,3.31,2.158l1.906-2.5h.5l.5.454h.5l.4-2.044h0l.6.454h0l-.6.568,1.705.454h-1v.454l.7.795-.4,2.044v.8c0,.568.5.795,1.5.795,0,0,.6,1.931,2.006,2.044,1.3.114,3.11-1.476,3.912-.454s.4-1.59.4-1.59l-.2-.795.7-.341.1.114.2.681h1.806c.2,0,.4-.227.5-.568l.5-.454-.2-.227,1.4-.795-.5-1.7h.1l.6.227a3.5,3.5,0,0,0,1.3,1.476,7.466,7.466,0,0,1,.2,1.476c1.6.568,2.407,1.476,2.407,2.953l-1,.795v1.249l2.909-1.7.5,1.249,1-2.158v-.795c1,0,1.906-1.022,2.909-2.953l-.5-.454V114.22h1.4a7.94,7.94,0,0,1,3.812,1.7h.5a4.171,4.171,0,0,0,2.006-2.044h.8l2.106,1.363a1.756,1.756,0,0,1,.8-1.249l1.705-.227.3.227h.3l1.2-.341-.5,3.634h-.8v.454l.7.568-.1.909h1.4c.3-3.294,1-5.111,1.906-5.111h1.6l.5.114.3-.114,2.106-.114a2.322,2.322,0,0,1,.2.795l21.265-2.044.7,1.7h.4v-.795l.4.454h.4l.4-.454.4.454.7-1.7h.7c.7,0,1.1.568,1.1,1.7h.4a2.229,2.229,0,0,1,.4-1.59c.4.114,1,.227,1.5.341.7-.568,21.266-1.022,23.573-1.249l1.806,1.249c1.2,0,1.806-.227,1.806-.795l.4.454h.4l2.608-.454,1.1,1.249.7-.795h1.1l2.207.795c0,.568,38.619.795,39.923.795,0,.795.2,1.249.7,1.249h.4c0-2.271,1.2-3.294,3.711-3.294v-.114l2.106.227,50.856-.568.7.568.2-.227h4.714l1.1.227.2-.227v.227l1.1-.227.9.227.9-.227.6.114-.4.454c4.213,2.044,6.52,3.294,6.721,3.748l2.207-.795a2,2,0,0,0,2.207,1.7c0-.795.5-1.249,1.5-1.249v-.454c0-.568-.4-.795-1.1-.795l-.4-.454v-.454l.8-1.817h4.313v.568c1.705.454,2.608,1.022,2.608,1.7h.7c0-1.136,1-1.7,2.909-1.7a2.089,2.089,0,0,0,2.207,1.7l.4,1.249h.7l1.1-1.249a5.275,5.275,0,0,1,3.711,1.7h.4l1.5-1.249.7.795-.4,1.249,1.806.795.7-1.249-.4-1.7h.4l.7.795-.4.454v.454l.4.454h1.1v-.454l-.4-2.044h1.1c0,.795.9,1.59,2.608,2.5l1.5-2.5h.4l.4.454h.4l.3-2.044h0l.5.568-.5.568,1.4.568v-.227a3.24,3.24,0,0,0,1.906,1.022v1.249c-1,.114-1.5.568-1.5,1.249l.7.795,1.1-.454,1.1,1.249.4-.454v.454l1.806-1.249.4.454h.7l.2-.114v.341h.4l.7-.795-.2-.227,1.1-.8-.4-1.7v-.795h.1c.1,0,.2.114.3.114h0l-.1.341.1.114a3.544,3.544,0,0,0,1.1,1.817,7.319,7.319,0,0,1,.1,1.476,2.94,2.94,0,0,1,1.806,2.953l-.7.795v1.249l2.207-1.7.4,1.249h.7v-.795c.7,0,1.5-1.022,2.207-2.953l-.4-.454v-2.953h1.1a5.256,5.256,0,0,1,2.909,1.7h.4a4.188,4.188,0,0,0,1.5-2.044l2.809.227,1.4-.227.2.227h.2l.9-.341-.4,3.634h-.6v.454l.5.568-.1.909h1.1c.2-3.294.7-5.111,1.5-5.111h1.3l.4.114.2-.114,1.6-.114,1.1.227.2-.227h.2l3.21.227.2-.227.2.227h1.806l1.6-.568.5.568.7-.681.6.114h2.207l7.824.454,2.307-.227,1.6,2.385.4-.454h.4l2.106-2.044,1,.227,1.806-.454.4.454h.4a4.2,4.2,0,0,0,1.705-.341l1.4,2.612,2.608-.795.7.795,3.711-5.565c2.307.114,3.711.568,4.514,1.249h.4c.5,0,.7-.454.7-1.249l.7,3.18c0,1.136.2-1.476.7-1.476h.8l.4,1.7a11.221,11.221,0,0,0,1.6-2.839c.7,1.136,3.812,1.817,9.529,2.044l.7-2.5-.4.454h-.7l-.4-.454h-.4l-.7.795h-.4v-.795H1289l-.7-.795h.4l3.31.454.7-.795c.4.568,1.705.795,3.711.795l.4.454v.454l-2.207.454c.6,1.363,1.806,2.044,3.711,2.044.7-.568,2.508-1.022,5.617-1.249v-.795l-1.1.454-4.915-.795v-.454l4.514-.795,1.5.795a8.124,8.124,0,0,0,1.705-.114l.3,1.7v.454l2.207-.454,1.806.795,1.1-.795,6.32.795,5.216-.795,1.1.795.4-.454h7.523l1.806.454.4-.454v.454l1.806-.454,20.463.454,1.5-.454,1.806.454,2.207-.454h3.31l.4.454.1-.114v.114h.4l.4-.454h13.843l5.617-.454,30.394.454,1.806-.795,1.806.795,22.068-.795,3.711.795,2.207-.795,21.265.454h1.1l2.608-.454.4.454,1.806-.454,21.265.795,1.806-.795.8.227c0,.795.5,1.249,1.5,1.249v.454l.4-.454h.7v.795l31.2-.454h.4l.7.8-.7.795,2.207.795.4-1.7c-.5,0-1-.795-1.3-2.271h1.3l3.31-.454,2.608.454h1.1c.1.114.1.114.1.227l-.7.795v.795h1.806l-.4,2.044,1.806,1.7h1.1c0-1.363.2-2.044.7-2.044h1.806v-1.249h.4l.4.454h.4l-.4,2.044.7.795h1.1l.4-.454,1.806.795,1.5-1.7,1.5.795,2.608-.454,1.1.454v-.568h1.1c0,.568.6.795,1.806.795l.4.454v.454l1.5-.795,10.733.795,2.207-.454.4.454h.4l2.207-.795,5.216,1.249,1.3-.681h.6l2.909.681.4-.454h.4l5.216.454.4-.454.1.114c.3,1.136.6,1.59,1,1.59l1.806-.795v-.341a1.525,1.525,0,0,1-.7-.114h1l2.608-.795.7.795,3.711-3.294a8.876,8.876,0,0,1,3.812.795,19.27,19.27,0,0,0-.8,2.612c1,0,1.5.795,1.5,2.5h2.207l.7-.795v-.454l-1.1-1.7c0-.454.6-.909,1.806-1.249l-.4-2.044v-.454h.1l.3,1.136a6.077,6.077,0,0,1,4.514-2.5l.7.795h.7l1.1-1.249v-.454l-1.1-1.7v-.454h3.31l.4.454h.4a3.747,3.747,0,0,1,.6-1.476,8.9,8.9,0,0,0,1.3,2.839l1.1-.454v1.249h-1v.454l.7.795-.4,2.044v.795c0,.568.5.795,1.5.795,0,0,.6,1.931,2.006,2.044,1.3.114,3.109-1.476,3.912-.454s.4-1.59.4-1.59l-.7-2.5q.752-1.874,1.5-2.044l.4,1.249-.7,1.7.4,1.249h1.806c.5,0,.9-1.136,1.1-3.294l.4-.454h.4l1.1.454v-1.7l.4-2.044h.4l.7.8h-.7v.454l3.31,3.294.7-2.044h-.7v-1.249h.7l2.608.795.7-1.7h.4l.7.795c1.5,0,2.207-.454,2.207-1.249h.4l2.207.454,1.5-.454,4.514,2.953a2.089,2.089,0,0,1,2.207-1.7l.4-1.249h2.909c.1,1.136.5,1.7,1.1,1.7h.7V112.4c2.909,0,4.514.681,4.514,2.044l21.265-2.044.7,1.7h.4v-.795l.4.454h.4l.4-.454.4.454.7-1.7h.7c.7,0,1.1.568,1.1,1.7h.4a2.228,2.228,0,0,1,.4-1.59c.4.114,1,.227,1.5.341.7-.568,21.265-1.022,23.573-1.249l1.806,1.249c1.2,0,1.806-.227,1.806-.795l.4.454h.4l2.608-.454,1.1,1.249.7-.795h1.1l2.207.795c0,.568,38.619.795,39.923.795,0,.795.2,1.249.7,1.249h.4c0-2.271,1.2-3.294,3.711-3.294v-.227l2.107.227,50.856-.568.7.568.2-.227h4.714l1.1.227.2-.227v.227l1.1-.227.9.227.9-.227.6.114-.4.454c4.213,2.044,6.52,3.294,6.721,3.748l2.207-.795a2,2,0,0,0,2.207,1.7c0-.795.5-1.249,1.5-1.249v-.454c0-.568-.4-.795-1.1-.795l-.4-.454v-.454l.8-1.817h4.313v.568c1.705.454,2.608,1.022,2.608,1.7h.7c0-1.136,1-1.7,2.909-1.7a2.089,2.089,0,0,0,2.207,1.7l.4,1.249h.7l1.1-1.249a5.275,5.275,0,0,1,3.711,1.7h.4l1.5-1.249.7.795-.4,1.249,1.806.795.7-1.249-.4-1.7h.4l.7.795-.4.454v.454l.4.454h1.1v-.454l-.4-2.044h1.1c0,.795.9,1.59,2.608,2.5l1.5-2.5h.4l.4.454h.4l.3-2.044h0l.5.568-.5.568,1.4.568v-.227a3.24,3.24,0,0,0,1.906,1.022v1.249c-1,.114-1.5.568-1.5,1.249l.7.795,1.1-.454,1.1,1.249.4-.454v.454l1.806-1.249.4.454h.7l.2-.114v.341h.4l.7-.795-.2-.227,1.1-.795-.4-1.7v-.795h.1c.1,0,.2.114.3.114h0l-.1.341.1.114a3.545,3.545,0,0,0,1.1,1.817,7.31,7.31,0,0,1,.1,1.476,2.94,2.94,0,0,1,1.806,2.953l-.7.795v1.249l2.207-1.7.4,1.249h.7v-.795c.7,0,1.5-1.022,2.207-2.953l-.4-.454v-2.953h1.1a5.255,5.255,0,0,1,2.909,1.7h.4a4.188,4.188,0,0,0,1.5-2.044l2.809.227,1.4-.227.2.227h.2l.9-.341-.4,3.634h-.6v.454l.5.568-.1.909h1.1c.2-3.294.7-5.111,1.5-5.111h1.3l.4.114.2-.114,1.6-.114,1.1.227.2-.227h.2l3.21.227.2-.227.2.227h1.806l1.6-.568.5.568.7-.681.6.114h2.207l5.517.341V15.3Zm178.248,95.74-1,.795v-1.249h1Zm172.631-4.429-.4.454h-.4l-.4-.454v-.454l.4-.454h.4l.4.454Zm133.41.795h-.4v-.681h.4Zm89.876,6.814h-.5l-.7-.568a5.21,5.21,0,0,0,1.2.454Zm.6-2.158-.1-.227Zm12.839,1.022-1.3-.227v-.227h1.4Zm48.951,2.385h-1v-.795h1Zm350.779-4.429Zm28.889-3.521c-.2-.114-.5-.227-.7-.341h1.3l.2.341Zm51.759,4.656-.7.795h-.4v-.795l.6-.681h.3l.2.227Zm77.438,0-.7.795v-1.136h.7Zm120.671-.114a2.959,2.959,0,0,1,.4-.795h1.2l.7.795Zm38.719-5.679h-.4l-.4-2.953.7-.795,1.806,1.249Zm50.656,6.36-.4.454h-.4l-.4-.454v-.454l.4-.454h.4l.4.454Zm128.8,1.931h-.4v-.681h.4Zm131.6-10.449h.4v1.7h-.4Zm.7,9.313h-.7v-1.249h.7Zm3.711-6.36-.7-.795v-.454h.7Zm-.4-2.158-2.608-2.5v.795h-.7v-.795a1.378,1.378,0,0,0,1.5-1.249v-.454h.4l1.806,2.5Zm12.739,2.953v-2.044l1.806.795c0,.454-.6.909-1.806,1.249Zm17.855-.454-.7-.795.4-.454,1.1.454v.795Zm2.207,3.066h-.4l-1.1-1.249v-.454h.7l.7.795.1.909Zm.7-3.407-.7.795-.7-.795,1.1-.795.4.454-.1.341Zm27.585,3.861v-1.249h.5c0,.227.1.341.1.568Zm.7-2.839-.7-.227-.7.795-1.806-2.044,3.711-1.249h.2Zm.8-3.521h-.4l-.7-1.7v-1.249h.2a6.7,6.7,0,0,0,1,2.5Zm24.375,3.294-1.1.341-.4-.454v-.795l1.1-1.249h.4Zm.7-4.656a8.124,8.124,0,0,0,1-1.59h.5v.795c0,.568-.4.795-1.1.795h-.4Zm2.207,4.2c-1-.454-1.5-.795-1.5-1.249v-.454h1.5l.7,1.7Zm.4-2.044h-.7l-.4-1.249h.7l.7.795Zm51.458,6.7-.7.795h-.4v-.795l.6-.681h.3l.2.227Zm57.176-5.565h-.2l-.2-1.817.5-.568,1.1.795Zm20.262,5.565-.7.795v-1.136h.7Z" transform="translate(1942.002 127.622) rotate(180)"/>
</svg>
