<svg xmlns="http://www.w3.org/2000/svg" width="28.75" height="22" viewBox="0 0 28.75 22">
  <path id="ico_vk" class="cls-1" d="M79.37,148.9v-0.3h0.6l-0.2.3h-0.4Zm19.138-1.6c-2.891,3.7-3.19,3.3-.8,5.5a20.779,20.779,0,0,1,2.093,2.1V155l0.3,0.3a2.191,2.191,0,0,1-1.2,1.5l-0.2.8h-3.19c-0.1.1-.1,0.2-0.2,0.3l0.9,1-1.2,1.1-1.1-.4-0.1-.9a2.542,2.542,0,0,0,1.1-1.2c-0.1,0-.2-0.1-0.3-0.1v-0.1c-0.4,0-.7-0.1-0.7-0.5h0.5l0.3,0.3V157a0.9,0.9,0,0,0,.5.1l-0.4-.8a1.479,1.479,0,0,1-1.1-1.1l-0.7.1a0.763,0.763,0,0,0-.4-0.7h-0.4V155c0,0.2.1,0.3,0.4,0.3l-0.1.5,0.3,0.3h0.3l0.1-.4c0.2,0,.3.5,0.4,1.4h-0.1c-1.3-1-2.592-3.3-3.688-3-1.2.4-1.1,2.6-1.1,2.6a2.184,2.184,0,0,1-.3.5,1.251,1.251,0,0,1-.8.1H85.949a8.319,8.319,0,0,1-4.087-.8h-0.2v-0.1l0.2-.2a5.832,5.832,0,0,1-1.695-1v-0.6h-0.4l-0.1.3a5,5,0,0,1-.8-0.7c-0.6-.7-1.2-1.4-1.794-2.2l-0.4.3c-1.2,0-1.794-.2-1.794-0.7a2.3,2.3,0,0,1-.4-1.4h0.5c0,0.3.2,0.4,0.6,0.4v0.1l-0.1.4,0.6,0.3a0.55,0.55,0,0,1,.3-0.5,6.727,6.727,0,0,0-.7-1.1,0.76,0.76,0,0,1,.5-0.2v-0.4l-0.7-.1-0.2.2c-0.3-.4-0.6-0.9-0.9-1.4l-0.8.1h-0.4v-0.1l0.6-.2h0.3l0.2,0.1v-0.1a2.508,2.508,0,0,1-.4-0.7l-0.2-.3v-0.1c-1-1.8-1.595-3.1-1.595-3.1a0.857,0.857,0,0,1,0-.7,1.13,1.13,0,0,1,.8-0.3h4.187l0.6,0.3a1,1,0,0,1,.4.5,9.322,9.322,0,0,0,.5,1h-0.2l-0.3.3v0.5h0.6v-0.3a4.344,4.344,0,0,1,.4.7h-0.1c0,0.3-.3.5-0.8,0.5v0.4q0,0.3.6,0.3a1.082,1.082,0,0,0,.3.7l0.1,0.1,0.8-.1,0.4,0.1,0.3,0.3-0.7.3h-0.3a1.076,1.076,0,0,0-.6.7l0.9,1.2v0.1l-0.6.4a1.191,1.191,0,0,0,1.1.5,1.018,1.018,0,0,1,1.1-.9l-0.3-.9,0.1-.3c0.6,0.7,1.1.9,1.4,0.7,0.9-.5.6-4,0.6-4a4.147,4.147,0,0,0-.5-1.9,2.271,2.271,0,0,0-1.2-.6c-0.2-.1.1-0.6,0.7-0.8a10.918,10.918,0,0,1,3.588-.3,7.1,7.1,0,0,1,1.994.2c1.4,0.3.9,1.6,0.9,4.6,0,1-.2,2.3.5,2.8,0.3,0.2,1.1.1,2.99-3.1a24.98,24.98,0,0,0,1.595-3.3,1,1,0,0,1,.4-0.5,1.261,1.261,0,0,1,.6-0.1h4.286s1.3-.1,1.495.5C101,143.7,100.3,145.1,98.508,147.3Zm-0.1,8h0.3l0.2-.3v-0.3h-0.2l-0.3.3v0.3ZM78.373,149h-0.1l-0.3.3,0.3,0.3h0.1V149Zm5.183,6.5-0.3.3,0.1,0.1h0.1l0.1-.1,0.1-.3h-0.1Zm3.389-4.2v0.1l-0.1.1v0.2l0.4,0.1h0.1l0.2-.1A0.738,0.738,0,0,0,86.946,151.3Zm3.489-.2h-0.1l-0.1.1h-0.1l-0.1-.9h-0.6a1.552,1.552,0,0,0,1,1.2v-0.4Zm4.286,8.1,0.1,0.1h0.1l0.5-.5v-0.3l-0.1-.1v-0.1A0.875,0.875,0,0,0,94.721,159.2Zm1.3-2.2a0.378,0.378,0,0,1,.2.2,0.1,0.1,0,0,1-.1.1l0.2,0.2v-0.1h0.1v-0.3l-0.4-.4V157Zm0.1-16.3,0.1-.1v-0.2l0.1,0.2h0.2l0.6-.2v0.3l-0.8.3Zm-1.794.7,0.1-.1c-0.7-.3-1.1-0.6-1-0.9h0.4l1.1,0.5-0.3.7,0.1,0.1h0.1l0.4-.3a0.874,0.874,0,0,1,.6.9v0.2A2.781,2.781,0,0,1,94.322,141.4Zm-4.486-1.6v0.1l-0.4-.4a2.059,2.059,0,0,1,1.1-.5l0.6,0.9v0.3l-1-.4h-0.3Zm-9.469,8.6h0.6v0.4h-0.6v-0.4Zm-1.595-2.3,0.2-.1a0.352,0.352,0,0,1,.4.3l0.1-.1a0.1,0.1,0,0,1,.1.1,0.769,0.769,0,0,0,.2.3l-1-.1v-0.4ZM74.486,149l0.3,0.3-0.7.1h-0.2v-0.1l0.3-.3h0.3Zm4.685,8.1,0.6,0.2v0.1a0.738,0.738,0,0,1-.6.4l-0.1.1v0.3a0.994,0.994,0,0,1,1,.5V159h-0.3c0-.2-0.2-0.3-0.7-0.3l-0.6-1.5,0.1-1A1.35,1.35,0,0,1,79.171,157.1Zm2.592,0.8c0,0.4.2,0.6,0.7,0.5v0.3l-0.3.3a1.4,1.4,0,0,0-1-.7v-0.1l0.3-.3h0.3Zm18.441-1.5v0.2l0.1,0.1v0.1l-0.4.5H99.8l-0.1-.1A0.792,0.792,0,0,1,100.2,156.4Z" transform="translate(-72.031 -138.5)"/>
</svg>
