<svg id="Group_64" data-name="Group 64" xmlns="http://www.w3.org/2000/svg" viewBox="0 0 13.525 11.5">
  <defs>
    <style>
      .cls-1 {
        fill: #FF9900;
      }
    </style>
  </defs>
  <path class="cls-1" d="M1.845,8.2H1.7v.072c.145.072.217.145.217.289h.072l.072-.072C1.989,8.345,1.989,8.2,1.845,8.2Z" transform="translate(-0.47 -2.269)"/>
  <path class="cls-1" d="M16.045,2.989c.072,0,.072-.072.145-.217L16.117,2.7l-.217.072v.072l.145.145Z" transform="translate(-4.4 -0.747)"/>
  <path class="cls-1" d="M11.089,3.506c.072,0,.072-.072.145-.217h-.072L11.306,3l-.506.072C10.945,3.362,11.017,3.506,11.089,3.506Z" transform="translate(-2.989 -0.83)"/>
  <path class="cls-1" d="M12.345,3.072V3H12.2l.072.072Z" transform="translate(-3.376 -0.83)"/>
  <path class="cls-1" d="M17.268,2.745h0l.072-.072L17.268,2.6l-.434.072h-.072L16.689,2.6a.548.548,0,0,1-.289.145v.145l.434.217A.458.458,0,0,0,17.268,2.745Z" transform="translate(-4.538 -0.719)"/>
  <path class="cls-1" d="M17.645,10.145l.072-.072L17.572,10h0l-.072.072.072.072Z" transform="translate(-4.843 -2.767)"/>
  <rect class="cls-1" width="0.145" height="0.072" transform="translate(12.585 3.038)"/>
  <path class="cls-1" d="M3.672,3.2H3.6v.289l.072.145Z" transform="translate(-0.996 -0.886)"/>
  <path class="cls-1" d="M.4,8.9h0l.289.289.145-.072V9.045C.834,8.9.689,8.9.4,8.9Z" transform="translate(-0.111 -2.463)"/>
  <path class="cls-1" d="M2.906,4.789V4.5H2.834L2.4,4.789v.072l.217.072C2.617,4.862,2.762,4.789,2.906,4.789Z" transform="translate(-0.664 -1.245)"/>
  <path class="cls-1" d="M14.574,11.779h0l.072-.145c0-.072-.072-.145-.289-.217l-.145.072-.072-.072h-.289l-.072.072-.072-.289-.506.289v.145a.388.388,0,0,1,.289.217l.289-.072a.692.692,0,0,1,.506.145l.072-.072.072.072V12c-.072,0-.145,0-.145.072H14.5c.217,0,.289-.072.362-.289Z" transform="translate(-3.653 -3.099)"/>
  <path class="cls-1" d="M16.623,11.751c0-.072.072-.145.217-.145v-.145l-.217-.072v-.072l.072-.072.289.072v-.072l-.072-.145c-.289,0-.434.145-.434.289h-.072l-.072-.072h-.072l.072.289-.217-.072c-.072,0-.145.072-.217.289l.289.072h.072l.072-.072c0-.072,0-.145.072-.145h.072l.145.072Z" transform="translate(-4.4 -3.072)"/>
  <path class="cls-1" d="M8.969,8.535h0L8.9,8.39V8.318l-.217.072-.072-.145.145-.289-.072-.217c0-.217.072-.362.145-.362a.266.266,0,0,0-.072-.217H8.9l.072-.072-.217-.217H8.679v.145l.072.072c-.072,0-.145-.072-.217-.072V6.943l-.072-.072h.145V6.8l-.072-.289H8.462c0-.145-.072-.289-.289-.579l.434-.145v.072L8.752,6l.289-.072L9.113,6v.434L8.9,6.292H8.679c-.072,0-.145.072-.145.217a1.575,1.575,0,0,1,.579.362.548.548,0,0,1,.289.145L12.223,4.34,8.535,3.833H8.245l.289-.289H8.245V3.472c0-.072.072-.145.217-.145V3.255c0-.072-.072-.072-.217-.145l.072-.072.434.145,1.013-.289V2.821l-.072-.072H9.619l-.072.072H9.041c-.145,0-.217.072-.362.145H8.607L8.39,2.821H8.1l-.145.072v.072c0,.072.072.072.289.072V3.11a.546.546,0,0,0-.289.506H7.884l-.289-.651h0l.072-.072H7.305c0-.072.072-.072.145-.145l-.072-.217c-.145.072-.217.145-.362.145H6.871V2.459h.072a1.222,1.222,0,0,0,.362-.145h0l.289-.072L7.377,2.17H7.16l-.145-.362-.145.145.145.145-.145.145h0L6.8,2.17l.145-.217L6.8,1.736l.072-.072h.072l-.217-.506c-.072,0-.072,0-.145.072l-.145-.217h0c0-.072,0-.145.072-.145L6.22.289H6.148V.217L6.075,0V.072h0V.289H5.931L5.786.579,3.978,3.833H3.689L.8,4.267a.071.071,0,0,1,.072-.072L.723,4.05l-.145.072v.145L0,4.34H0L1.23,5.5h0v.072l.072.072h.072l.723.723h0l.072.072h.072l.145.145v.072l.506.506c0-.072.072-.072.072-.145.072.072.217.145.217.217h0l.072.072a.821.821,0,0,0-.217.579H2.893V8.39c.072.072.072.145.145.289h0a.266.266,0,0,0-.217.072l-.072.434h.072V9.4H2.748l-.289,1.591.434.145,2.459-1.3c-.072,0-.072,0-.072-.072L6.148,9.4l.579.289h0l.145.217.289.145.145-.072.145.072V10.2l.145.072.506.072c0,.072,0,.072-.072.072l.651.434H8.9v.145l1.013.506L9.4,8.39A.775.775,0,0,0,8.969,8.535Zm.362-2.6h.145l.289.217-.072.072H9.475L9.33,6.075Zm-.145.723h0l-.072-.145.072.145ZM2.893,6.075Zm.145.579h0l-.072-.072.072-.072Zm2.821.94H5.786L5.642,7.45V7.233h.072A.425.425,0,0,1,5.858,7.594ZM5.5,7.522q0,.434-.217.434l-.072-.072h0l.072-.072V7.739L5.135,7.45h.072C5.425,7.45,5.5,7.45,5.5,7.522ZM4.846,8.1,4.7,8.173,4.629,8.1V8.028l.217-.072Zm.289-.072ZM4.7,8.607,4.484,8.9h0c-.072.072-.217.072-.289.217l-.072-.072V8.752l.145.072L4.7,8.607Zm-.434,0h0L4.05,8.462l.072-.072h.145v.217ZM5.786,6V5.786h.145v.289Zm2.387.651h0L8.1,6.8l-.072-.145ZM7.016,2.965h0a.552.552,0,0,1,.362.145c-.072,0-.145.072-.217.072v.362l-.145-.289.072-.072H6.943L6.8,3.038A.266.266,0,0,1,7.016,2.965ZM6.292.723ZM5.208,4.774h0l.651.506-.145.289c-.145,0-.217-.072-.217-.289l-.579-.362.072-.362Zm-.723.8a1.581,1.581,0,0,1-.217.362L4.195,5.5ZM3.4,9.836H3.182V9.619H3.4v.217ZM3.182,8.318V8.173h.362l.072.145L3.4,8.462l.072.434H3.4A2.977,2.977,0,0,1,3.182,8.318Z"/>
  <path class="cls-1" d="M17.162,12.972l-.289-.072H16.8v.145h.723l-.072-.145Z" transform="translate(-4.649 -3.57)"/>
  <rect class="cls-1" width="0.072" height="0.145" transform="translate(13.236 7.45)"/>
  <path class="cls-1" d="M18.472,10.8H18.4v.289h.145l.072-.145Z" transform="translate(-5.092 -2.989)"/>
  <path class="cls-1" d="M17.934,10.9c-.289.072-.434.145-.434.289h.072l.072.072-.072.072.072.289h.072l.072-.289-.072-.072h.289Z" transform="translate(-4.843 -3.016)"/>
  <path class="cls-1" d="M2.2,9.1v.217l.145-.145L2.272,9.1Z" transform="translate(-0.609 -2.518)"/>
  <path class="cls-1" d="M11.3,15.145l.145.072h0V15H11.3Z" transform="translate(-3.127 -4.151)"/>
  <path class="cls-1" d="M16.4,10.445v.072l.145-.145.217.072V10.3h-.217Z" transform="translate(-4.538 -2.85)"/>
  <path class="cls-1" d="M16.072,10.517l.145-.072V10.3H16v.145Z" transform="translate(-4.428 -2.85)"/>
  <path class="cls-1" d="M14.672,10.717h.145V10.5h-.145l-.072.072Z" transform="translate(-4.04 -2.906)"/>
  <path class="cls-1" d="M15.289,10.072h-.072L15.145,10H15l.072.362h.145l.072-.072v-.072h-.072v-.145Z" transform="translate(-4.151 -2.767)"/>
  <path class="cls-1" d="M13.4,10.234h0c0,.072.145.217.434.289v-.072l.072-.072V9.945l.072-.072h-.145L13.762,9.8h-.072l-.289.072v.072c.072,0,.145,0,.145.072v.072Z" transform="translate(-3.708 -2.712)"/>
  <path class="cls-1" d="M10.572,15.572h.072V15.5H10.5Z" transform="translate(-2.906 -4.289)"/>
</svg>
